; GCODE Generated by cam.openbuilds.com on 2022-05-10 
G21 ; mm-mode
G54; Work Coordinates
G21; mm-mode
G90; Absolute Positioning
M3 S1000; Spindle On

; Operation 0: CNC: Vector (path inside)
; Endmill Diameter: 6

G0 Z10; move to z-safe height
G0 F1000 X20.6386 Y3.0559

G0 Z0
G1 F100 Z-2.0000
G1 F1000 X21.3816 Y3.1747 Z-2.0000 S1000
G1 F1000 X22.1217 Y3.3510 Z-2.0000 S1000
G1 F1000 X22.8327 Y3.5805 Z-2.0000 S1000
G1 F1000 X23.5017 Y3.8607 Z-2.0000 S1000
G1 F1000 X24.1190 Y4.1893 Z-2.0000 S1000
G1 F1000 X24.6781 Y4.5643 Z-2.0000 S1000
G1 F1000 X25.1757 Y4.9841 Z-2.0000 S1000
G1 F1000 X25.6095 Y5.4469 Z-2.0000 S1000
G1 F1000 X25.9822 Y5.9550 Z-2.0000 S1000
G1 F1000 X26.2962 Y6.5122 Z-2.0000 S1000
G1 F1000 X26.5516 Y7.1189 Z-2.0000 S1000
G1 F1000 X26.7495 Y7.7772 Z-2.0000 S1000
G1 F1000 X26.8891 Y8.4810 Z-2.0000 S1000
G1 F1000 X26.9714 Y9.2262 Z-2.0000 S1000
G1 F1000 X27.0000 Y10.0517 Z-2.0000 S1000
G1 F1000 X27.0000 Y79.8885 Z-2.0000 S1000
G1 F1000 X26.9441 Y80.6386 Z-2.0000 S1000
G1 F1000 X26.8253 Y81.3816 Z-2.0000 S1000
G1 F1000 X26.6490 Y82.1217 Z-2.0000 S1000
G1 F1000 X26.4195 Y82.8327 Z-2.0000 S1000
G1 F1000 X26.1393 Y83.5017 Z-2.0000 S1000
G1 F1000 X25.8107 Y84.1190 Z-2.0000 S1000
G1 F1000 X25.4357 Y84.6781 Z-2.0000 S1000
G1 F1000 X25.0159 Y85.1757 Z-2.0000 S1000
G1 F1000 X24.5531 Y85.6095 Z-2.0000 S1000
G1 F1000 X24.0450 Y85.9822 Z-2.0000 S1000
G1 F1000 X23.4878 Y86.2962 Z-2.0000 S1000
G1 F1000 X22.8811 Y86.5516 Z-2.0000 S1000
G1 F1000 X22.2228 Y86.7495 Z-2.0000 S1000
G1 F1000 X21.5190 Y86.8891 Z-2.0000 S1000
G1 F1000 X20.7738 Y86.9714 Z-2.0000 S1000
G1 F1000 X19.9483 Y87.0000 Z-2.0000 S1000
G1 F1000 X10.1115 Y87.0000 Z-2.0000 S1000
G1 F1000 X9.3614 Y86.9441 Z-2.0000 S1000
G1 F1000 X8.6184 Y86.8253 Z-2.0000 S1000
G1 F1000 X7.8783 Y86.6490 Z-2.0000 S1000
G1 F1000 X7.1673 Y86.4195 Z-2.0000 S1000
G1 F1000 X6.4983 Y86.1393 Z-2.0000 S1000
G1 F1000 X5.8810 Y85.8107 Z-2.0000 S1000
G1 F1000 X5.3219 Y85.4357 Z-2.0000 S1000
G1 F1000 X4.8243 Y85.0159 Z-2.0000 S1000
G1 F1000 X4.3905 Y84.5531 Z-2.0000 S1000
G1 F1000 X4.0178 Y84.0450 Z-2.0000 S1000
G1 F1000 X3.7038 Y83.4878 Z-2.0000 S1000
G1 F1000 X3.4484 Y82.8811 Z-2.0000 S1000
G1 F1000 X3.2505 Y82.2228 Z-2.0000 S1000
G1 F1000 X3.1109 Y81.5190 Z-2.0000 S1000
G1 F1000 X3.0286 Y80.7738 Z-2.0000 S1000
G1 F1000 X3.0000 Y79.9483 Z-2.0000 S1000
G1 F1000 X3.0000 Y10.0517 Z-2.0000 S1000
G1 F1000 X3.0286 Y9.2262 Z-2.0000 S1000
G1 F1000 X3.1109 Y8.4810 Z-2.0000 S1000
G1 F1000 X3.2505 Y7.7772 Z-2.0000 S1000
G1 F1000 X3.4484 Y7.1189 Z-2.0000 S1000
G1 F1000 X3.7038 Y6.5122 Z-2.0000 S1000
G1 F1000 X4.0178 Y5.9550 Z-2.0000 S1000
G1 F1000 X4.3905 Y5.4469 Z-2.0000 S1000
G1 F1000 X4.8243 Y4.9841 Z-2.0000 S1000
G1 F1000 X5.3219 Y4.5643 Z-2.0000 S1000
G1 F1000 X5.8810 Y4.1893 Z-2.0000 S1000
G1 F1000 X6.4983 Y3.8607 Z-2.0000 S1000
G1 F1000 X7.1673 Y3.5805 Z-2.0000 S1000
G1 F1000 X7.8783 Y3.3510 Z-2.0000 S1000
G1 F1000 X8.6184 Y3.1747 Z-2.0000 S1000
G1 F1000 X9.3614 Y3.0559 Z-2.0000 S1000
G1 F1000 X10.1115 Y3.0000 Z-2.0000 S1000
G1 F1000 X19.8885 Y3.0000 Z-2.0000 S1000
G1 F1000 X20.6386 Y3.0559 Z-2.0000 S1000
G1 F100 Z-4.0000
G1 F1000 X21.3816 Y3.1747 Z-4.0000 S1000
G1 F1000 X22.1217 Y3.3510 Z-4.0000 S1000
G1 F1000 X22.8327 Y3.5805 Z-4.0000 S1000
G1 F1000 X23.5017 Y3.8607 Z-4.0000 S1000
G1 F1000 X24.1190 Y4.1893 Z-4.0000 S1000
G1 F1000 X24.6781 Y4.5643 Z-4.0000 S1000
G1 F1000 X25.1757 Y4.9841 Z-4.0000 S1000
G1 F1000 X25.6095 Y5.4469 Z-4.0000 S1000
G1 F1000 X25.9822 Y5.9550 Z-4.0000 S1000
G1 F1000 X26.2962 Y6.5122 Z-4.0000 S1000
G1 F1000 X26.5516 Y7.1189 Z-4.0000 S1000
G1 F1000 X26.7495 Y7.7772 Z-4.0000 S1000
G1 F1000 X26.8891 Y8.4810 Z-4.0000 S1000
G1 F1000 X26.9714 Y9.2262 Z-4.0000 S1000
G1 F1000 X27.0000 Y10.0517 Z-4.0000 S1000
G1 F1000 X27.0000 Y79.8885 Z-4.0000 S1000
G1 F1000 X26.9441 Y80.6386 Z-4.0000 S1000
G1 F1000 X26.8253 Y81.3816 Z-4.0000 S1000
G1 F1000 X26.6490 Y82.1217 Z-4.0000 S1000
G1 F1000 X26.4195 Y82.8327 Z-4.0000 S1000
G1 F1000 X26.1393 Y83.5017 Z-4.0000 S1000
G1 F1000 X25.8107 Y84.1190 Z-4.0000 S1000
G1 F1000 X25.4357 Y84.6781 Z-4.0000 S1000
G1 F1000 X25.0159 Y85.1757 Z-4.0000 S1000
G1 F1000 X24.5531 Y85.6095 Z-4.0000 S1000
G1 F1000 X24.0450 Y85.9822 Z-4.0000 S1000
G1 F1000 X23.4878 Y86.2962 Z-4.0000 S1000
G1 F1000 X22.8811 Y86.5516 Z-4.0000 S1000
G1 F1000 X22.2228 Y86.7495 Z-4.0000 S1000
G1 F1000 X21.5190 Y86.8891 Z-4.0000 S1000
G1 F1000 X20.7738 Y86.9714 Z-4.0000 S1000
G1 F1000 X19.9483 Y87.0000 Z-4.0000 S1000
G1 F1000 X10.1115 Y87.0000 Z-4.0000 S1000
G1 F1000 X9.3614 Y86.9441 Z-4.0000 S1000
G1 F1000 X8.6184 Y86.8253 Z-4.0000 S1000
G1 F1000 X7.8783 Y86.6490 Z-4.0000 S1000
G1 F1000 X7.1673 Y86.4195 Z-4.0000 S1000
G1 F1000 X6.4983 Y86.1393 Z-4.0000 S1000
G1 F1000 X5.8810 Y85.8107 Z-4.0000 S1000
G1 F1000 X5.3219 Y85.4357 Z-4.0000 S1000
G1 F1000 X4.8243 Y85.0159 Z-4.0000 S1000
G1 F1000 X4.3905 Y84.5531 Z-4.0000 S1000
G1 F1000 X4.0178 Y84.0450 Z-4.0000 S1000
G1 F1000 X3.7038 Y83.4878 Z-4.0000 S1000
G1 F1000 X3.4484 Y82.8811 Z-4.0000 S1000
G1 F1000 X3.2505 Y82.2228 Z-4.0000 S1000
G1 F1000 X3.1109 Y81.5190 Z-4.0000 S1000
G1 F1000 X3.0286 Y80.7738 Z-4.0000 S1000
G1 F1000 X3.0000 Y79.9483 Z-4.0000 S1000
G1 F1000 X3.0000 Y10.0517 Z-4.0000 S1000
G1 F1000 X3.0286 Y9.2262 Z-4.0000 S1000
G1 F1000 X3.1109 Y8.4810 Z-4.0000 S1000
G1 F1000 X3.2505 Y7.7772 Z-4.0000 S1000
G1 F1000 X3.4484 Y7.1189 Z-4.0000 S1000
G1 F1000 X3.7038 Y6.5122 Z-4.0000 S1000
G1 F1000 X4.0178 Y5.9550 Z-4.0000 S1000
G1 F1000 X4.3905 Y5.4469 Z-4.0000 S1000
G1 F1000 X4.8243 Y4.9841 Z-4.0000 S1000
G1 F1000 X5.3219 Y4.5643 Z-4.0000 S1000
G1 F1000 X5.8810 Y4.1893 Z-4.0000 S1000
G1 F1000 X6.4983 Y3.8607 Z-4.0000 S1000
G1 F1000 X7.1673 Y3.5805 Z-4.0000 S1000
G1 F1000 X7.8783 Y3.3510 Z-4.0000 S1000
G1 F1000 X8.6184 Y3.1747 Z-4.0000 S1000
G1 F1000 X9.3614 Y3.0559 Z-4.0000 S1000
G1 F1000 X10.1115 Y3.0000 Z-4.0000 S1000
G1 F1000 X19.8885 Y3.0000 Z-4.0000 S1000
G1 F1000 X20.6386 Y3.0559 Z-4.0000 S1000
G1 F100 Z-6.0000
G1 F1000 X21.3816 Y3.1747 Z-6.0000 S1000
G1 F1000 X22.1217 Y3.3510 Z-6.0000 S1000
G1 F1000 X22.8327 Y3.5805 Z-6.0000 S1000
G1 F1000 X23.5017 Y3.8607 Z-6.0000 S1000
G1 F1000 X24.1190 Y4.1893 Z-6.0000 S1000
G1 F1000 X24.6781 Y4.5643 Z-6.0000 S1000
G1 F1000 X25.1757 Y4.9841 Z-6.0000 S1000
G1 F1000 X25.6095 Y5.4469 Z-6.0000 S1000
G1 F1000 X25.9822 Y5.9550 Z-6.0000 S1000
G1 F1000 X26.2962 Y6.5122 Z-6.0000 S1000
G1 F1000 X26.5516 Y7.1189 Z-6.0000 S1000
G1 F1000 X26.7495 Y7.7772 Z-6.0000 S1000
G1 F1000 X26.8891 Y8.4810 Z-6.0000 S1000
G1 F1000 X26.9714 Y9.2262 Z-6.0000 S1000
G1 F1000 X27.0000 Y10.0517 Z-6.0000 S1000
G1 F1000 X27.0000 Y79.8885 Z-6.0000 S1000
G1 F1000 X26.9441 Y80.6386 Z-6.0000 S1000
G1 F1000 X26.8253 Y81.3816 Z-6.0000 S1000
G1 F1000 X26.6490 Y82.1217 Z-6.0000 S1000
G1 F1000 X26.4195 Y82.8327 Z-6.0000 S1000
G1 F1000 X26.1393 Y83.5017 Z-6.0000 S1000
G1 F1000 X25.8107 Y84.1190 Z-6.0000 S1000
G1 F1000 X25.4357 Y84.6781 Z-6.0000 S1000
G1 F1000 X25.0159 Y85.1757 Z-6.0000 S1000
G1 F1000 X24.5531 Y85.6095 Z-6.0000 S1000
G1 F1000 X24.0450 Y85.9822 Z-6.0000 S1000
G1 F1000 X23.4878 Y86.2962 Z-6.0000 S1000
G1 F1000 X22.8811 Y86.5516 Z-6.0000 S1000
G1 F1000 X22.2228 Y86.7495 Z-6.0000 S1000
G1 F1000 X21.5190 Y86.8891 Z-6.0000 S1000
G1 F1000 X20.7738 Y86.9714 Z-6.0000 S1000
G1 F1000 X19.9483 Y87.0000 Z-6.0000 S1000
G1 F1000 X10.1115 Y87.0000 Z-6.0000 S1000
G1 F1000 X9.3614 Y86.9441 Z-6.0000 S1000
G1 F1000 X8.6184 Y86.8253 Z-6.0000 S1000
G1 F1000 X7.8783 Y86.6490 Z-6.0000 S1000
G1 F1000 X7.1673 Y86.4195 Z-6.0000 S1000
G1 F1000 X6.4983 Y86.1393 Z-6.0000 S1000
G1 F1000 X5.8810 Y85.8107 Z-6.0000 S1000
G1 F1000 X5.3219 Y85.4357 Z-6.0000 S1000
G1 F1000 X4.8243 Y85.0159 Z-6.0000 S1000
G1 F1000 X4.3905 Y84.5531 Z-6.0000 S1000
G1 F1000 X4.0178 Y84.0450 Z-6.0000 S1000
G1 F1000 X3.7038 Y83.4878 Z-6.0000 S1000
G1 F1000 X3.4484 Y82.8811 Z-6.0000 S1000
G1 F1000 X3.2505 Y82.2228 Z-6.0000 S1000
G1 F1000 X3.1109 Y81.5190 Z-6.0000 S1000
G1 F1000 X3.0286 Y80.7738 Z-6.0000 S1000
G1 F1000 X3.0000 Y79.9483 Z-6.0000 S1000
G1 F1000 X3.0000 Y10.0517 Z-6.0000 S1000
G1 F1000 X3.0286 Y9.2262 Z-6.0000 S1000
G1 F1000 X3.1109 Y8.4810 Z-6.0000 S1000
G1 F1000 X3.2505 Y7.7772 Z-6.0000 S1000
G1 F1000 X3.4484 Y7.1189 Z-6.0000 S1000
G1 F1000 X3.7038 Y6.5122 Z-6.0000 S1000
G1 F1000 X4.0178 Y5.9550 Z-6.0000 S1000
G1 F1000 X4.3905 Y5.4469 Z-6.0000 S1000
G1 F1000 X4.8243 Y4.9841 Z-6.0000 S1000
G1 F1000 X5.3219 Y4.5643 Z-6.0000 S1000
G1 F1000 X5.8810 Y4.1893 Z-6.0000 S1000
G1 F1000 X6.4983 Y3.8607 Z-6.0000 S1000
G1 F1000 X7.1673 Y3.5805 Z-6.0000 S1000
G1 F1000 X7.8783 Y3.3510 Z-6.0000 S1000
G1 F1000 X8.6184 Y3.1747 Z-6.0000 S1000
G1 F1000 X9.3614 Y3.0559 Z-6.0000 S1000
G1 F1000 X10.1115 Y3.0000 Z-6.0000 S1000
G1 F1000 X19.8885 Y3.0000 Z-6.0000 S1000
G1 F1000 X20.6386 Y3.0559 Z-6.0000 S1000
G1 F100 Z-8.0000
G1 F1000 X21.3816 Y3.1747 Z-8.0000 S1000
G1 F1000 X22.1217 Y3.3510 Z-8.0000 S1000
G1 F1000 X22.8327 Y3.5805 Z-8.0000 S1000
G1 F1000 X23.5017 Y3.8607 Z-8.0000 S1000
G1 F1000 X24.1190 Y4.1893 Z-8.0000 S1000
G1 F1000 X24.6781 Y4.5643 Z-8.0000 S1000
G1 F1000 X25.1757 Y4.9841 Z-8.0000 S1000
G1 F1000 X25.6095 Y5.4469 Z-8.0000 S1000
G1 F1000 X25.9822 Y5.9550 Z-8.0000 S1000
G1 F1000 X26.2962 Y6.5122 Z-8.0000 S1000
G1 F1000 X26.5516 Y7.1189 Z-8.0000 S1000
G1 F1000 X26.7495 Y7.7772 Z-8.0000 S1000
G1 F1000 X26.8891 Y8.4810 Z-8.0000 S1000
G1 F1000 X26.9714 Y9.2262 Z-8.0000 S1000
G1 F1000 X27.0000 Y10.0517 Z-8.0000 S1000
G1 F1000 X27.0000 Y79.8885 Z-8.0000 S1000
G1 F1000 X26.9441 Y80.6386 Z-8.0000 S1000
G1 F1000 X26.8253 Y81.3816 Z-8.0000 S1000
G1 F1000 X26.6490 Y82.1217 Z-8.0000 S1000
G1 F1000 X26.4195 Y82.8327 Z-8.0000 S1000
G1 F1000 X26.1393 Y83.5017 Z-8.0000 S1000
G1 F1000 X25.8107 Y84.1190 Z-8.0000 S1000
G1 F1000 X25.4357 Y84.6781 Z-8.0000 S1000
G1 F1000 X25.0159 Y85.1757 Z-8.0000 S1000
G1 F1000 X24.5531 Y85.6095 Z-8.0000 S1000
G1 F1000 X24.0450 Y85.9822 Z-8.0000 S1000
G1 F1000 X23.4878 Y86.2962 Z-8.0000 S1000
G1 F1000 X22.8811 Y86.5516 Z-8.0000 S1000
G1 F1000 X22.2228 Y86.7495 Z-8.0000 S1000
G1 F1000 X21.5190 Y86.8891 Z-8.0000 S1000
G1 F1000 X20.7738 Y86.9714 Z-8.0000 S1000
G1 F1000 X19.9483 Y87.0000 Z-8.0000 S1000
G1 F1000 X10.1115 Y87.0000 Z-8.0000 S1000
G1 F1000 X9.3614 Y86.9441 Z-8.0000 S1000
G1 F1000 X8.6184 Y86.8253 Z-8.0000 S1000
G1 F1000 X7.8783 Y86.6490 Z-8.0000 S1000
G1 F1000 X7.1673 Y86.4195 Z-8.0000 S1000
G1 F1000 X6.4983 Y86.1393 Z-8.0000 S1000
G1 F1000 X5.8810 Y85.8107 Z-8.0000 S1000
G1 F1000 X5.3219 Y85.4357 Z-8.0000 S1000
G1 F1000 X4.8243 Y85.0159 Z-8.0000 S1000
G1 F1000 X4.3905 Y84.5531 Z-8.0000 S1000
G1 F1000 X4.0178 Y84.0450 Z-8.0000 S1000
G1 F1000 X3.7038 Y83.4878 Z-8.0000 S1000
G1 F1000 X3.4484 Y82.8811 Z-8.0000 S1000
G1 F1000 X3.2505 Y82.2228 Z-8.0000 S1000
G1 F1000 X3.1109 Y81.5190 Z-8.0000 S1000
G1 F1000 X3.0286 Y80.7738 Z-8.0000 S1000
G1 F1000 X3.0000 Y79.9483 Z-8.0000 S1000
G1 F1000 X3.0000 Y10.0517 Z-8.0000 S1000
G1 F1000 X3.0286 Y9.2262 Z-8.0000 S1000
G1 F1000 X3.1109 Y8.4810 Z-8.0000 S1000
G1 F1000 X3.2505 Y7.7772 Z-8.0000 S1000
G1 F1000 X3.4484 Y7.1189 Z-8.0000 S1000
G1 F1000 X3.7038 Y6.5122 Z-8.0000 S1000
G1 F1000 X4.0178 Y5.9550 Z-8.0000 S1000
G1 F1000 X4.3905 Y5.4469 Z-8.0000 S1000
G1 F1000 X4.8243 Y4.9841 Z-8.0000 S1000
G1 F1000 X5.3219 Y4.5643 Z-8.0000 S1000
G1 F1000 X5.8810 Y4.1893 Z-8.0000 S1000
G1 F1000 X6.4983 Y3.8607 Z-8.0000 S1000
G1 F1000 X7.1673 Y3.5805 Z-8.0000 S1000
G1 F1000 X7.8783 Y3.3510 Z-8.0000 S1000
G1 F1000 X8.6184 Y3.1747 Z-8.0000 S1000
G1 F1000 X9.3614 Y3.0559 Z-8.0000 S1000
G1 F1000 X10.1115 Y3.0000 Z-8.0000 S1000
G1 F1000 X19.8885 Y3.0000 Z-8.0000 S1000
G1 F1000 X20.6386 Y3.0559 Z-8.0000 S1000
G1 F100 Z-10.0000
G1 F1000 X21.3816 Y3.1747 Z-10.0000 S1000
G1 F1000 X22.1217 Y3.3510 Z-10.0000 S1000
G1 F1000 X22.8327 Y3.5805 Z-10.0000 S1000
G1 F1000 X23.5017 Y3.8607 Z-10.0000 S1000
G1 F1000 X24.1190 Y4.1893 Z-10.0000 S1000
G1 F1000 X24.6781 Y4.5643 Z-10.0000 S1000
G1 F1000 X25.1757 Y4.9841 Z-10.0000 S1000
G1 F1000 X25.6095 Y5.4469 Z-10.0000 S1000
G1 F1000 X25.9822 Y5.9550 Z-10.0000 S1000
G1 F1000 X26.2962 Y6.5122 Z-10.0000 S1000
G1 F1000 X26.5516 Y7.1189 Z-10.0000 S1000
G1 F1000 X26.7495 Y7.7772 Z-10.0000 S1000
G1 F1000 X26.8891 Y8.4810 Z-10.0000 S1000
G1 F1000 X26.9714 Y9.2262 Z-10.0000 S1000
G1 F1000 X27.0000 Y10.0517 Z-10.0000 S1000
G1 F1000 X27.0000 Y79.8885 Z-10.0000 S1000
G1 F1000 X26.9441 Y80.6386 Z-10.0000 S1000
G1 F1000 X26.8253 Y81.3816 Z-10.0000 S1000
G1 F1000 X26.6490 Y82.1217 Z-10.0000 S1000
G1 F1000 X26.4195 Y82.8327 Z-10.0000 S1000
G1 F1000 X26.1393 Y83.5017 Z-10.0000 S1000
G1 F1000 X25.8107 Y84.1190 Z-10.0000 S1000
G1 F1000 X25.4357 Y84.6781 Z-10.0000 S1000
G1 F1000 X25.0159 Y85.1757 Z-10.0000 S1000
G1 F1000 X24.5531 Y85.6095 Z-10.0000 S1000
G1 F1000 X24.0450 Y85.9822 Z-10.0000 S1000
G1 F1000 X23.4878 Y86.2962 Z-10.0000 S1000
G1 F1000 X22.8811 Y86.5516 Z-10.0000 S1000
G1 F1000 X22.2228 Y86.7495 Z-10.0000 S1000
G1 F1000 X21.5190 Y86.8891 Z-10.0000 S1000
G1 F1000 X20.7738 Y86.9714 Z-10.0000 S1000
G1 F1000 X19.9483 Y87.0000 Z-10.0000 S1000
G1 F1000 X10.1115 Y87.0000 Z-10.0000 S1000
G1 F1000 X9.3614 Y86.9441 Z-10.0000 S1000
G1 F1000 X8.6184 Y86.8253 Z-10.0000 S1000
G1 F1000 X7.8783 Y86.6490 Z-10.0000 S1000
G1 F1000 X7.1673 Y86.4195 Z-10.0000 S1000
G1 F1000 X6.4983 Y86.1393 Z-10.0000 S1000
G1 F1000 X5.8810 Y85.8107 Z-10.0000 S1000
G1 F1000 X5.3219 Y85.4357 Z-10.0000 S1000
G1 F1000 X4.8243 Y85.0159 Z-10.0000 S1000
G1 F1000 X4.3905 Y84.5531 Z-10.0000 S1000
G1 F1000 X4.0178 Y84.0450 Z-10.0000 S1000
G1 F1000 X3.7038 Y83.4878 Z-10.0000 S1000
G1 F1000 X3.4484 Y82.8811 Z-10.0000 S1000
G1 F1000 X3.2505 Y82.2228 Z-10.0000 S1000
G1 F1000 X3.1109 Y81.5190 Z-10.0000 S1000
G1 F1000 X3.0286 Y80.7738 Z-10.0000 S1000
G1 F1000 X3.0000 Y79.9483 Z-10.0000 S1000
G1 F1000 X3.0000 Y10.0517 Z-10.0000 S1000
G1 F1000 X3.0286 Y9.2262 Z-10.0000 S1000
G1 F1000 X3.1109 Y8.4810 Z-10.0000 S1000
G1 F1000 X3.2505 Y7.7772 Z-10.0000 S1000
G1 F1000 X3.4484 Y7.1189 Z-10.0000 S1000
G1 F1000 X3.7038 Y6.5122 Z-10.0000 S1000
G1 F1000 X4.0178 Y5.9550 Z-10.0000 S1000
G1 F1000 X4.3905 Y5.4469 Z-10.0000 S1000
G1 F1000 X4.8243 Y4.9841 Z-10.0000 S1000
G1 F1000 X5.3219 Y4.5643 Z-10.0000 S1000
G1 F1000 X5.8810 Y4.1893 Z-10.0000 S1000
G1 F1000 X6.4983 Y3.8607 Z-10.0000 S1000
G1 F1000 X7.1673 Y3.5805 Z-10.0000 S1000
G1 F1000 X7.8783 Y3.3510 Z-10.0000 S1000
G1 F1000 X8.6184 Y3.1747 Z-10.0000 S1000
G1 F1000 X9.3614 Y3.0559 Z-10.0000 S1000
G1 F1000 X10.1115 Y3.0000 Z-10.0000 S1000
G1 F1000 X19.8885 Y3.0000 Z-10.0000 S1000
G1 F1000 X20.6386 Y3.0559 Z-10.0000 S1000
G1 F100 Z-12.0000
G1 F1000 X21.3816 Y3.1747 Z-12.0000 S1000
G1 F1000 X22.1217 Y3.3510 Z-12.0000 S1000
G1 F1000 X22.8327 Y3.5805 Z-12.0000 S1000
G1 F1000 X23.5017 Y3.8607 Z-12.0000 S1000
G1 F1000 X24.1190 Y4.1893 Z-12.0000 S1000
G1 F1000 X24.6781 Y4.5643 Z-12.0000 S1000
G1 F1000 X25.1757 Y4.9841 Z-12.0000 S1000
G1 F1000 X25.6095 Y5.4469 Z-12.0000 S1000
G1 F1000 X25.9822 Y5.9550 Z-12.0000 S1000
G1 F1000 X26.2962 Y6.5122 Z-12.0000 S1000
G1 F1000 X26.5516 Y7.1189 Z-12.0000 S1000
G1 F1000 X26.7495 Y7.7772 Z-12.0000 S1000
G1 F1000 X26.8891 Y8.4810 Z-12.0000 S1000
G1 F1000 X26.9714 Y9.2262 Z-12.0000 S1000
G1 F1000 X27.0000 Y10.0517 Z-12.0000 S1000
G1 F1000 X27.0000 Y79.8885 Z-12.0000 S1000
G1 F1000 X26.9441 Y80.6386 Z-12.0000 S1000
G1 F1000 X26.8253 Y81.3816 Z-12.0000 S1000
G1 F1000 X26.6490 Y82.1217 Z-12.0000 S1000
G1 F1000 X26.4195 Y82.8327 Z-12.0000 S1000
G1 F1000 X26.1393 Y83.5017 Z-12.0000 S1000
G1 F1000 X25.8107 Y84.1190 Z-12.0000 S1000
G1 F1000 X25.4357 Y84.6781 Z-12.0000 S1000
G1 F1000 X25.0159 Y85.1757 Z-12.0000 S1000
G1 F1000 X24.5531 Y85.6095 Z-12.0000 S1000
G1 F1000 X24.0450 Y85.9822 Z-12.0000 S1000
G1 F1000 X23.4878 Y86.2962 Z-12.0000 S1000
G1 F1000 X22.8811 Y86.5516 Z-12.0000 S1000
G1 F1000 X22.2228 Y86.7495 Z-12.0000 S1000
G1 F1000 X21.5190 Y86.8891 Z-12.0000 S1000
G1 F1000 X20.7738 Y86.9714 Z-12.0000 S1000
G1 F1000 X19.9483 Y87.0000 Z-12.0000 S1000
G1 F1000 X10.1115 Y87.0000 Z-12.0000 S1000
G1 F1000 X9.3614 Y86.9441 Z-12.0000 S1000
G1 F1000 X8.6184 Y86.8253 Z-12.0000 S1000
G1 F1000 X7.8783 Y86.6490 Z-12.0000 S1000
G1 F1000 X7.1673 Y86.4195 Z-12.0000 S1000
G1 F1000 X6.4983 Y86.1393 Z-12.0000 S1000
G1 F1000 X5.8810 Y85.8107 Z-12.0000 S1000
G1 F1000 X5.3219 Y85.4357 Z-12.0000 S1000
G1 F1000 X4.8243 Y85.0159 Z-12.0000 S1000
G1 F1000 X4.3905 Y84.5531 Z-12.0000 S1000
G1 F1000 X4.0178 Y84.0450 Z-12.0000 S1000
G1 F1000 X3.7038 Y83.4878 Z-12.0000 S1000
G1 F1000 X3.4484 Y82.8811 Z-12.0000 S1000
G1 F1000 X3.2505 Y82.2228 Z-12.0000 S1000
G1 F1000 X3.1109 Y81.5190 Z-12.0000 S1000
G1 F1000 X3.0286 Y80.7738 Z-12.0000 S1000
G1 F1000 X3.0000 Y79.9483 Z-12.0000 S1000
G1 F1000 X3.0000 Y10.0517 Z-12.0000 S1000
G1 F1000 X3.0286 Y9.2262 Z-12.0000 S1000
G1 F1000 X3.1109 Y8.4810 Z-12.0000 S1000
G1 F1000 X3.2505 Y7.7772 Z-12.0000 S1000
G1 F1000 X3.4484 Y7.1189 Z-12.0000 S1000
G1 F1000 X3.7038 Y6.5122 Z-12.0000 S1000
G1 F1000 X4.0178 Y5.9550 Z-12.0000 S1000
G1 F1000 X4.3905 Y5.4469 Z-12.0000 S1000
G1 F1000 X4.8243 Y4.9841 Z-12.0000 S1000
G1 F1000 X5.3219 Y4.5643 Z-12.0000 S1000
G1 F1000 X5.8810 Y4.1893 Z-12.0000 S1000
G1 F1000 X6.4983 Y3.8607 Z-12.0000 S1000
G1 F1000 X7.1673 Y3.5805 Z-12.0000 S1000
G1 F1000 X7.8783 Y3.3510 Z-12.0000 S1000
G1 F1000 X8.6184 Y3.1747 Z-12.0000 S1000
G1 F1000 X9.3614 Y3.0559 Z-12.0000 S1000
G1 F1000 X10.1115 Y3.0000 Z-12.0000 S1000
G1 F1000 X19.8885 Y3.0000 Z-12.0000 S1000
G1 F1000 X20.6386 Y3.0559 Z-12.0000 S1000
G1 F100 Z-14.0000
G1 F1000 X21.3816 Y3.1747 Z-14.0000 S1000
G1 F1000 X22.1217 Y3.3510 Z-14.0000 S1000
G1 F1000 X22.8327 Y3.5805 Z-14.0000 S1000
G1 F1000 X23.5017 Y3.8607 Z-14.0000 S1000
G1 F1000 X24.1190 Y4.1893 Z-14.0000 S1000
G1 F1000 X24.6781 Y4.5643 Z-14.0000 S1000
G1 F1000 X25.1757 Y4.9841 Z-14.0000 S1000
G1 F1000 X25.6095 Y5.4469 Z-14.0000 S1000
G1 F1000 X25.9822 Y5.9550 Z-14.0000 S1000
G1 F1000 X26.2962 Y6.5122 Z-14.0000 S1000
G1 F1000 X26.5516 Y7.1189 Z-14.0000 S1000
G1 F1000 X26.7495 Y7.7772 Z-14.0000 S1000
G1 F1000 X26.8891 Y8.4810 Z-14.0000 S1000
G1 F1000 X26.9714 Y9.2262 Z-14.0000 S1000
G1 F1000 X27.0000 Y10.0517 Z-14.0000 S1000
G1 F1000 X27.0000 Y79.8885 Z-14.0000 S1000
G1 F1000 X26.9441 Y80.6386 Z-14.0000 S1000
G1 F1000 X26.8253 Y81.3816 Z-14.0000 S1000
G1 F1000 X26.6490 Y82.1217 Z-14.0000 S1000
G1 F1000 X26.4195 Y82.8327 Z-14.0000 S1000
G1 F1000 X26.1393 Y83.5017 Z-14.0000 S1000
G1 F1000 X25.8107 Y84.1190 Z-14.0000 S1000
G1 F1000 X25.4357 Y84.6781 Z-14.0000 S1000
G1 F1000 X25.0159 Y85.1757 Z-14.0000 S1000
G1 F1000 X24.5531 Y85.6095 Z-14.0000 S1000
G1 F1000 X24.0450 Y85.9822 Z-14.0000 S1000
G1 F1000 X23.4878 Y86.2962 Z-14.0000 S1000
G1 F1000 X22.8811 Y86.5516 Z-14.0000 S1000
G1 F1000 X22.2228 Y86.7495 Z-14.0000 S1000
G1 F1000 X21.5190 Y86.8891 Z-14.0000 S1000
G1 F1000 X20.7738 Y86.9714 Z-14.0000 S1000
G1 F1000 X19.9483 Y87.0000 Z-14.0000 S1000
G1 F1000 X10.1115 Y87.0000 Z-14.0000 S1000
G1 F1000 X9.3614 Y86.9441 Z-14.0000 S1000
G1 F1000 X8.6184 Y86.8253 Z-14.0000 S1000
G1 F1000 X7.8783 Y86.6490 Z-14.0000 S1000
G1 F1000 X7.1673 Y86.4195 Z-14.0000 S1000
G1 F1000 X6.4983 Y86.1393 Z-14.0000 S1000
G1 F1000 X5.8810 Y85.8107 Z-14.0000 S1000
G1 F1000 X5.3219 Y85.4357 Z-14.0000 S1000
G1 F1000 X4.8243 Y85.0159 Z-14.0000 S1000
G1 F1000 X4.3905 Y84.5531 Z-14.0000 S1000
G1 F1000 X4.0178 Y84.0450 Z-14.0000 S1000
G1 F1000 X3.7038 Y83.4878 Z-14.0000 S1000
G1 F1000 X3.4484 Y82.8811 Z-14.0000 S1000
G1 F1000 X3.2505 Y82.2228 Z-14.0000 S1000
G1 F1000 X3.1109 Y81.5190 Z-14.0000 S1000
G1 F1000 X3.0286 Y80.7738 Z-14.0000 S1000
G1 F1000 X3.0000 Y79.9483 Z-14.0000 S1000
G1 F1000 X3.0000 Y10.0517 Z-14.0000 S1000
G1 F1000 X3.0286 Y9.2262 Z-14.0000 S1000
G1 F1000 X3.1109 Y8.4810 Z-14.0000 S1000
G1 F1000 X3.2505 Y7.7772 Z-14.0000 S1000
G1 F1000 X3.4484 Y7.1189 Z-14.0000 S1000
G1 F1000 X3.7038 Y6.5122 Z-14.0000 S1000
G1 F1000 X4.0178 Y5.9550 Z-14.0000 S1000
G1 F1000 X4.3905 Y5.4469 Z-14.0000 S1000
G1 F1000 X4.8243 Y4.9841 Z-14.0000 S1000
G1 F1000 X5.3219 Y4.5643 Z-14.0000 S1000
G1 F1000 X5.8810 Y4.1893 Z-14.0000 S1000
G1 F1000 X6.4983 Y3.8607 Z-14.0000 S1000
G1 F1000 X7.1673 Y3.5805 Z-14.0000 S1000
G1 F1000 X7.8783 Y3.3510 Z-14.0000 S1000
G1 F1000 X8.6184 Y3.1747 Z-14.0000 S1000
G1 F1000 X9.3614 Y3.0559 Z-14.0000 S1000
G1 F1000 X10.1115 Y3.0000 Z-14.0000 S1000
G1 F1000 X19.8885 Y3.0000 Z-14.0000 S1000
G1 F1000 X20.6386 Y3.0559 Z-14.0000 S1000
G1 F100 Z-16.0000
G1 F1000 X21.3816 Y3.1747 Z-16.0000 S1000
G1 F1000 X22.1217 Y3.3510 Z-16.0000 S1000
G1 F1000 X22.8327 Y3.5805 Z-16.0000 S1000
G1 F1000 X23.5017 Y3.8607 Z-16.0000 S1000
G1 F1000 X24.1190 Y4.1893 Z-16.0000 S1000
G1 F1000 X24.6781 Y4.5643 Z-16.0000 S1000
G1 F1000 X25.1757 Y4.9841 Z-16.0000 S1000
G1 F1000 X25.6095 Y5.4469 Z-16.0000 S1000
G1 F1000 X25.9822 Y5.9550 Z-16.0000 S1000
G1 F1000 X26.2962 Y6.5122 Z-16.0000 S1000
G1 F1000 X26.5516 Y7.1189 Z-16.0000 S1000
G1 F1000 X26.7495 Y7.7772 Z-16.0000 S1000
G1 F1000 X26.8891 Y8.4810 Z-16.0000 S1000
G1 F1000 X26.9714 Y9.2262 Z-16.0000 S1000
G1 F1000 X27.0000 Y10.0517 Z-16.0000 S1000
G1 F1000 X27.0000 Y79.8885 Z-16.0000 S1000
G1 F1000 X26.9441 Y80.6386 Z-16.0000 S1000
G1 F1000 X26.8253 Y81.3816 Z-16.0000 S1000
G1 F1000 X26.6490 Y82.1217 Z-16.0000 S1000
G1 F1000 X26.4195 Y82.8327 Z-16.0000 S1000
G1 F1000 X26.1393 Y83.5017 Z-16.0000 S1000
G1 F1000 X25.8107 Y84.1190 Z-16.0000 S1000
G1 F1000 X25.4357 Y84.6781 Z-16.0000 S1000
G1 F1000 X25.0159 Y85.1757 Z-16.0000 S1000
G1 F1000 X24.5531 Y85.6095 Z-16.0000 S1000
G1 F1000 X24.0450 Y85.9822 Z-16.0000 S1000
G1 F1000 X23.4878 Y86.2962 Z-16.0000 S1000
G1 F1000 X22.8811 Y86.5516 Z-16.0000 S1000
G1 F1000 X22.2228 Y86.7495 Z-16.0000 S1000
G1 F1000 X21.5190 Y86.8891 Z-16.0000 S1000
G1 F1000 X20.7738 Y86.9714 Z-16.0000 S1000
G1 F1000 X19.9483 Y87.0000 Z-16.0000 S1000
G1 F1000 X10.1115 Y87.0000 Z-16.0000 S1000
G1 F1000 X9.3614 Y86.9441 Z-16.0000 S1000
G1 F1000 X8.6184 Y86.8253 Z-16.0000 S1000
G1 F1000 X7.8783 Y86.6490 Z-16.0000 S1000
G1 F1000 X7.1673 Y86.4195 Z-16.0000 S1000
G1 F1000 X6.4983 Y86.1393 Z-16.0000 S1000
G1 F1000 X5.8810 Y85.8107 Z-16.0000 S1000
G1 F1000 X5.3219 Y85.4357 Z-16.0000 S1000
G1 F1000 X4.8243 Y85.0159 Z-16.0000 S1000
G1 F1000 X4.3905 Y84.5531 Z-16.0000 S1000
G1 F1000 X4.0178 Y84.0450 Z-16.0000 S1000
G1 F1000 X3.7038 Y83.4878 Z-16.0000 S1000
G1 F1000 X3.4484 Y82.8811 Z-16.0000 S1000
G1 F1000 X3.2505 Y82.2228 Z-16.0000 S1000
G1 F1000 X3.1109 Y81.5190 Z-16.0000 S1000
G1 F1000 X3.0286 Y80.7738 Z-16.0000 S1000
G1 F1000 X3.0000 Y79.9483 Z-16.0000 S1000
G1 F1000 X3.0000 Y10.0517 Z-16.0000 S1000
G1 F1000 X3.0286 Y9.2262 Z-16.0000 S1000
G1 F1000 X3.1109 Y8.4810 Z-16.0000 S1000
G1 F1000 X3.2505 Y7.7772 Z-16.0000 S1000
G1 F1000 X3.4484 Y7.1189 Z-16.0000 S1000
G1 F1000 X3.7038 Y6.5122 Z-16.0000 S1000
G1 F1000 X4.0178 Y5.9550 Z-16.0000 S1000
G1 F1000 X4.3905 Y5.4469 Z-16.0000 S1000
G1 F1000 X4.8243 Y4.9841 Z-16.0000 S1000
G1 F1000 X5.3219 Y4.5643 Z-16.0000 S1000
G1 F1000 X5.8810 Y4.1893 Z-16.0000 S1000
G1 F1000 X6.4983 Y3.8607 Z-16.0000 S1000
G1 F1000 X7.1673 Y3.5805 Z-16.0000 S1000
G1 F1000 X7.8783 Y3.3510 Z-16.0000 S1000
G1 F1000 X8.6184 Y3.1747 Z-16.0000 S1000
G1 F1000 X9.3614 Y3.0559 Z-16.0000 S1000
G1 F1000 X10.1115 Y3.0000 Z-16.0000 S1000
G1 F1000 X19.8885 Y3.0000 Z-16.0000 S1000
G1 F1000 X20.6386 Y3.0559 Z-16.0000 S1000
; retracting back to z-safe
G0 Z10

M5 S0; Spindle Off
