<?xml version="1.0" encoding="UTF-8" standalone="no"?>
<!-- Created with Inkscape (http://www.inkscape.org/) -->

<svg
   xmlns:dc="http://purl.org/dc/elements/1.1/"
   xmlns:cc="http://creativecommons.org/ns#"
   xmlns:rdf="http://www.w3.org/1999/02/22-rdf-syntax-ns#"
   xmlns:svg="http://www.w3.org/2000/svg"
   xmlns="http://www.w3.org/2000/svg"
   xmlns:sodipodi="http://sodipodi.sourceforge.net/DTD/sodipodi-0.dtd"
   xmlns:inkscape="http://www.inkscape.org/namespaces/inkscape"
   width="16.440332mm"
   height="16.440332mm"
   viewBox="0 0 16.440332 16.440332"
   version="1.1"
   id="svg8"
   sodipodi:docname="pd.svg"
   inkscape:version="0.92.5 (2060ec1f9f, 2020-04-08)"
   inkscape:export-filename="/home/jr/code/bbb/bbb/puredata/settings/logo.png"
   inkscape:export-xdpi="94"
   inkscape:export-ydpi="94">
  <defs
     id="defs2" />
  <sodipodi:namedview
     id="base"
     pagecolor="#d7d7d7"
     bordercolor="#666666"
     borderopacity="1.0"
     inkscape:pageopacity="1"
     inkscape:pageshadow="2"
     inkscape:zoom="2.8"
     inkscape:cx="-170.99523"
     inkscape:cy="6.9086691"
     inkscape:document-units="mm"
     inkscape:current-layer="g821"
     showgrid="false"
     inkscape:window-width="1872"
     inkscape:window-height="1016"
     inkscape:window-x="0"
     inkscape:window-y="27"
     inkscape:window-maximized="1"
     fit-margin-top="0"
     fit-margin-left="0"
     fit-margin-right="0"
     fit-margin-bottom="0" />
  <metadata
     id="metadata5">
    <rdf:RDF>
      <cc:Work
         rdf:about="">
        <dc:format>image/svg+xml</dc:format>
        <dc:type
           rdf:resource="http://purl.org/dc/dcmitype/StillImage" />
        <dc:title />
      </cc:Work>
    </rdf:RDF>
  </metadata>
  <g
     inkscape:label="Calque 1"
     inkscape:groupmode="layer"
     id="layer1"
     transform="translate(373.03833,-113.61725)">
    <rect
       style="opacity:1;fill:#000000;fill-opacity:1;stroke:none;stroke-width:2.54945445;stroke-miterlimit:4;stroke-dasharray:none;stroke-opacity:1"
       id="rect899"
       width="16.440332"
       height="16.440332"
       x="-373.05975"
       y="113.61725" />
    <g
       id="g821"
       transform="translate(0,0.06756687)">
      <text
         xml:space="preserve"
         style="font-style:normal;font-weight:normal;font-size:7.5983901px;line-height:1.25;font-family:sans-serif;letter-spacing:0px;word-spacing:0px;fill:#ffffff;fill-opacity:1;stroke:none;stroke-width:0.18995975"
         x="-370.24713"
         y="124.38365"
         id="text889"><tspan
           sodipodi:role="line"
           id="tspan887"
           x="-370.24713"
           y="124.38365"
           style="font-style:normal;font-variant:normal;font-weight:normal;font-stretch:normal;font-family:arial;-inkscape-font-specification:arial;fill:#ffffff;stroke-width:0.18995975">PD</tspan></text>
      <circle
         r="0.52752978"
         cy="115.72223"
         cx="-359.54794"
         id="path901"
         style="opacity:1;fill:#ffffff;fill-opacity:1;stroke:none;stroke-width:2.56900239;stroke-miterlimit:4;stroke-dasharray:none;stroke-opacity:1" />
      <circle
         style="opacity:1;fill:#ffffff;fill-opacity:1;stroke:none;stroke-width:2.56900239;stroke-miterlimit:4;stroke-dasharray:none;stroke-opacity:1"
         id="circle903"
         cx="-359.54794"
         cy="127.81747"
         r="0.52752978" />
      <circle
         style="opacity:1;fill:#ffffff;fill-opacity:1;stroke:none;stroke-width:2.56900239;stroke-miterlimit:4;stroke-dasharray:none;stroke-opacity:1"
         id="circle818"
         cx="-370.13126"
         cy="115.72223"
         r="0.52752978" />
      <circle
         r="0.52752978"
         cy="127.81747"
         cx="-370.13126"
         id="circle820"
         style="opacity:1;fill:#ffffff;fill-opacity:1;stroke:none;stroke-width:2.56900239;stroke-miterlimit:4;stroke-dasharray:none;stroke-opacity:1" />
    </g>
  </g>
</svg>
